O arquivo txt será criado na pasta do projeto
Eu adicionei a função ranking(boxe1, boxe2, play1, play2); ao final da função tab()


Isso deve ser colocado em jogo.c:

void ranking(int boxes1, int boxes2, player player1, player player2)
{
    char Operacao;
    FILE *rnk;
    char leitura[888];

    rnk = fopen("ranking_dots_boxes.txt", "w");
    fprintf(rnk,"Ranking\n\nJogador 1 %s = %d boxes\nJogador 2 %s = %d boxes\n", player1.nick, boxes1, player2.nick, boxes2);
    fclose(rnk);

    if (boxe1 > boxe2)
        printf("O jogador 1 venceu\n");
    else
        printf("O jogador 2 venceu\n");

    printf("O placar foi de %d a %d\nE ele foi salvo no ranking\n", boxes1, boxes2);
    printf("Gostaria de ver o ranking? <S/N>\n");
    Operacao = getche();
    printf("\n\n");
    if (Operacao == 'S' || Operacao == 's')
    {
        rnk = fopen("ranking_dots_boxes.txt", "r");
        if(rnk == NULL)
        {
            printf("Nao foi possivel abrir o arquivo (NULL)\n");
            system("pause");
        }
        while(fgets(leitura,888,rnk) != NULL)
        {
            printf("%s", leitura);
        }
        fclose(rnk);

    }
    else{
        system("pause");
        }
}

O case 3 do menu tbm deve ser alterado:

case 3:
        rnk = fopen("ranking_dots_boxes.txt","r");
        if(rnk == NULL)
        {
            printf("Nao foi possivel abrir o arquivo (NULL)\n");
            system("pause");
        }
        while(fgets(leitura,888,rnk) != NULL)
        {
            printf("%s", leitura);
        }
        fclose(rnk);
        break;

Deverá ser adicionada a função abaixo em jogo.h
void ranking(int boxes1, int boxes2, player player1, player player2);

A função tab() deverá ser modificada para a funcao abaixo, tanto no .c como no .h
int tab(int boxes1, int boxes2, player player1, player player2)

Na função gamer(), a chamada da função tab() que está contida nela, deverá ser modificada para tab(contagem1, contagem2, player1, player2);


Eu tentei mas infelizmente não consegui adicionar novas rodadas de players ao ranking, pensei em criar uma função só para adiciona-los, mas não deu certo, estou mandando o começo dela, caso queira terminar

 rnk = fopen("ranking_dots_boxes.txt", "a");
    if(rnk == NULL)
        {
            printf("Nao foi possivel abrir o arquivo (NULL)\n");
            system("pause");
        }

    char formatJ1[] = "Jogador 1 ";
    char formatJ2[] = "Jogador 2 ";
    char formatIg[] = " = ";

    strcat(play1.nick,formatJ1);
    strcat("boxe1",formatJ1);
    strcat(play2.nick,formatJ2);
    strcat("boxe2",formatJ2);

    fputs(formatJ1, rnk);
    fputs(formatJ2, rnk);

    fclose(rnk);

